{
  "contractName": "ERC20",
  "abi": [
    {
      "anonymous": false,
      "inputs": [
        {
          "indexed": true,
          "name": "from",
          "type": "address"
        },
        {
          "indexed": true,
          "name": "to",
          "type": "address"
        },
        {
          "indexed": false,
          "name": "value",
          "type": "uint256"
        }
      ],
      "name": "Transfer",
      "type": "event"
    },
    {
      "anonymous": false,
      "inputs": [
        {
          "indexed": true,
          "name": "owner",
          "type": "address"
        },
        {
          "indexed": true,
          "name": "spender",
          "type": "address"
        },
        {
          "indexed": false,
          "name": "value",
          "type": "uint256"
        }
      ],
      "name": "Approval",
      "type": "event"
    },
    {
      "constant": true,
      "inputs": [],
      "name": "totalSupply",
      "outputs": [
        {
          "name": "",
          "type": "uint256"
        }
      ],
      "payable": false,
      "stateMutability": "view",
      "type": "function"
    },
    {
      "constant": true,
      "inputs": [
        {
          "name": "_who",
          "type": "address"
        }
      ],
      "name": "balanceOf",
      "outputs": [
        {
          "name": "",
          "type": "uint256"
        }
      ],
      "payable": false,
      "stateMutability": "view",
      "type": "function"
    },
    {
      "constant": true,
      "inputs": [
        {
          "name": "_owner",
          "type": "address"
        },
        {
          "name": "_spender",
          "type": "address"
        }
      ],
      "name": "allowance",
      "outputs": [
        {
          "name": "",
          "type": "uint256"
        }
      ],
      "payable": false,
      "stateMutability": "view",
      "type": "function"
    },
    {
      "constant": false,
      "inputs": [
        {
          "name": "_to",
          "type": "address"
        },
        {
          "name": "_value",
          "type": "uint256"
        }
      ],
      "name": "transfer",
      "outputs": [
        {
          "name": "",
          "type": "bool"
        }
      ],
      "payable": false,
      "stateMutability": "nonpayable",
      "type": "function"
    },
    {
      "constant": false,
      "inputs": [
        {
          "name": "_spender",
          "type": "address"
        },
        {
          "name": "_value",
          "type": "uint256"
        }
      ],
      "name": "approve",
      "outputs": [
        {
          "name": "",
          "type": "bool"
        }
      ],
      "payable": false,
      "stateMutability": "nonpayable",
      "type": "function"
    },
    {
      "constant": false,
      "inputs": [
        {
          "name": "_from",
          "type": "address"
        },
        {
          "name": "_to",
          "type": "address"
        },
        {
          "name": "_value",
          "type": "uint256"
        }
      ],
      "name": "transferFrom",
      "outputs": [
        {
          "name": "",
          "type": "bool"
        }
      ],
      "payable": false,
      "stateMutability": "nonpayable",
      "type": "function"
    }
  ],
  "bytecode": "0x",
  "deployedBytecode": "0x",
  "sourceMap": "",
  "deployedSourceMap": "",
  "source": "pragma solidity ^0.4.24;\r\n\r\n\r\n\r\ncontract ERC20 {\r\n  function totalSupply() public view returns (uint256);\r\n\r\n  function balanceOf(address _who) public view returns (uint256);\r\n\r\n  function allowance(address _owner, address _spender)\r\n    public view returns (uint256);\r\n\r\n  function transfer(address _to, uint256 _value) public returns (bool);\r\n\r\n  function approve(address _spender, uint256 _value)\r\n    public returns (bool);\r\n\r\n  function transferFrom(address _from, address _to, uint256 _value)\r\n    public returns (bool);\r\n\r\n  event Transfer(\r\n    address indexed from,\r\n    address indexed to,\r\n    uint256 value\r\n  );\r\n\r\n  event Approval(\r\n    address indexed owner,\r\n    address indexed spender,\r\n    uint256 value\r\n  );\r\n}\r\n",
  "sourcePath": "C:\\Users\\Beast-Lappy\\Documents\\Node\\Asset Tokenizer\\asset_tokenizer\\server\\contracts\\ERC20.sol",
  "ast": {
    "absolutePath": "/C/Users/Beast-Lappy/Documents/Node/Asset Tokenizer/asset_tokenizer/server/contracts/ERC20.sol",
    "exportedSymbols": {
      "ERC20": [
        117
      ]
    },
    "id": 118,
    "nodeType": "SourceUnit",
    "nodes": [
      {
        "id": 50,
        "literals": [
          "solidity",
          "^",
          "0.4",
          ".24"
        ],
        "nodeType": "PragmaDirective",
        "src": "0:24:1"
      },
      {
        "baseContracts": [],
        "contractDependencies": [],
        "contractKind": "contract",
        "documentation": null,
        "fullyImplemented": false,
        "id": 117,
        "linearizedBaseContracts": [
          117
        ],
        "name": "ERC20",
        "nodeType": "ContractDefinition",
        "nodes": [
          {
            "body": null,
            "documentation": null,
            "id": 55,
            "implemented": false,
            "isConstructor": false,
            "isDeclaredConst": true,
            "modifiers": [],
            "name": "totalSupply",
            "nodeType": "FunctionDefinition",
            "parameters": {
              "id": 51,
              "nodeType": "ParameterList",
              "parameters": [],
              "src": "72:2:1"
            },
            "payable": false,
            "returnParameters": {
              "id": 54,
              "nodeType": "ParameterList",
              "parameters": [
                {
                  "constant": false,
                  "id": 53,
                  "name": "",
                  "nodeType": "VariableDeclaration",
                  "scope": 55,
                  "src": "96:7:1",
                  "stateVariable": false,
                  "storageLocation": "default",
                  "typeDescriptions": {
                    "typeIdentifier": "t_uint256",
                    "typeString": "uint256"
                  },
                  "typeName": {
                    "id": 52,
                    "name": "uint256",
                    "nodeType": "ElementaryTypeName",
                    "src": "96:7:1",
                    "typeDescriptions": {
                      "typeIdentifier": "t_uint256",
                      "typeString": "uint256"
                    }
                  },
                  "value": null,
                  "visibility": "internal"
                }
              ],
              "src": "95:9:1"
            },
            "scope": 117,
            "src": "52:53:1",
            "stateMutability": "view",
            "superFunction": null,
            "visibility": "public"
          },
          {
            "body": null,
            "documentation": null,
            "id": 62,
            "implemented": false,
            "isConstructor": false,
            "isDeclaredConst": true,
            "modifiers": [],
            "name": "balanceOf",
            "nodeType": "FunctionDefinition",
            "parameters": {
              "id": 58,
              "nodeType": "ParameterList",
              "parameters": [
                {
                  "constant": false,
                  "id": 57,
                  "name": "_who",
                  "nodeType": "VariableDeclaration",
                  "scope": 62,
                  "src": "130:12:1",
                  "stateVariable": false,
                  "storageLocation": "default",
                  "typeDescriptions": {
                    "typeIdentifier": "t_address",
                    "typeString": "address"
                  },
                  "typeName": {
                    "id": 56,
                    "name": "address",
                    "nodeType": "ElementaryTypeName",
                    "src": "130:7:1",
                    "typeDescriptions": {
                      "typeIdentifier": "t_address",
                      "typeString": "address"
                    }
                  },
                  "value": null,
                  "visibility": "internal"
                }
              ],
              "src": "129:14:1"
            },
            "payable": false,
            "returnParameters": {
              "id": 61,
              "nodeType": "ParameterList",
              "parameters": [
                {
                  "constant": false,
                  "id": 60,
                  "name": "",
                  "nodeType": "VariableDeclaration",
                  "scope": 62,
                  "src": "165:7:1",
                  "stateVariable": false,
                  "storageLocation": "default",
                  "typeDescriptions": {
                    "typeIdentifier": "t_uint256",
                    "typeString": "uint256"
                  },
                  "typeName": {
                    "id": 59,
                    "name": "uint256",
                    "nodeType": "ElementaryTypeName",
                    "src": "165:7:1",
                    "typeDescriptions": {
                      "typeIdentifier": "t_uint256",
                      "typeString": "uint256"
                    }
                  },
                  "value": null,
                  "visibility": "internal"
                }
              ],
              "src": "164:9:1"
            },
            "scope": 117,
            "src": "111:63:1",
            "stateMutability": "view",
            "superFunction": null,
            "visibility": "public"
          },
          {
            "body": null,
            "documentation": null,
            "id": 71,
            "implemented": false,
            "isConstructor": false,
            "isDeclaredConst": true,
            "modifiers": [],
            "name": "allowance",
            "nodeType": "FunctionDefinition",
            "parameters": {
              "id": 67,
              "nodeType": "ParameterList",
              "parameters": [
                {
                  "constant": false,
                  "id": 64,
                  "name": "_owner",
                  "nodeType": "VariableDeclaration",
                  "scope": 71,
                  "src": "199:14:1",
                  "stateVariable": false,
                  "storageLocation": "default",
                  "typeDescriptions": {
                    "typeIdentifier": "t_address",
                    "typeString": "address"
                  },
                  "typeName": {
                    "id": 63,
                    "name": "address",
                    "nodeType": "ElementaryTypeName",
                    "src": "199:7:1",
                    "typeDescriptions": {
                      "typeIdentifier": "t_address",
                      "typeString": "address"
                    }
                  },
                  "value": null,
                  "visibility": "internal"
                },
                {
                  "constant": false,
                  "id": 66,
                  "name": "_spender",
                  "nodeType": "VariableDeclaration",
                  "scope": 71,
                  "src": "215:16:1",
                  "stateVariable": false,
                  "storageLocation": "default",
                  "typeDescriptions": {
                    "typeIdentifier": "t_address",
                    "typeString": "address"
                  },
                  "typeName": {
                    "id": 65,
                    "name": "address",
                    "nodeType": "ElementaryTypeName",
                    "src": "215:7:1",
                    "typeDescriptions": {
                      "typeIdentifier": "t_address",
                      "typeString": "address"
                    }
                  },
                  "value": null,
                  "visibility": "internal"
                }
              ],
              "src": "198:34:1"
            },
            "payable": false,
            "returnParameters": {
              "id": 70,
              "nodeType": "ParameterList",
              "parameters": [
                {
                  "constant": false,
                  "id": 69,
                  "name": "",
                  "nodeType": "VariableDeclaration",
                  "scope": 71,
                  "src": "259:7:1",
                  "stateVariable": false,
                  "storageLocation": "default",
                  "typeDescriptions": {
                    "typeIdentifier": "t_uint256",
                    "typeString": "uint256"
                  },
                  "typeName": {
                    "id": 68,
                    "name": "uint256",
                    "nodeType": "ElementaryTypeName",
                    "src": "259:7:1",
                    "typeDescriptions": {
                      "typeIdentifier": "t_uint256",
                      "typeString": "uint256"
                    }
                  },
                  "value": null,
                  "visibility": "internal"
                }
              ],
              "src": "258:9:1"
            },
            "scope": 117,
            "src": "180:88:1",
            "stateMutability": "view",
            "superFunction": null,
            "visibility": "public"
          },
          {
            "body": null,
            "documentation": null,
            "id": 80,
            "implemented": false,
            "isConstructor": false,
            "isDeclaredConst": false,
            "modifiers": [],
            "name": "transfer",
            "nodeType": "FunctionDefinition",
            "parameters": {
              "id": 76,
              "nodeType": "ParameterList",
              "parameters": [
                {
                  "constant": false,
                  "id": 73,
                  "name": "_to",
                  "nodeType": "VariableDeclaration",
                  "scope": 80,
                  "src": "292:11:1",
                  "stateVariable": false,
                  "storageLocation": "default",
                  "typeDescriptions": {
                    "typeIdentifier": "t_address",
                    "typeString": "address"
                  },
                  "typeName": {
                    "id": 72,
                    "name": "address",
                    "nodeType": "ElementaryTypeName",
                    "src": "292:7:1",
                    "typeDescriptions": {
                      "typeIdentifier": "t_address",
                      "typeString": "address"
                    }
                  },
                  "value": null,
                  "visibility": "internal"
                },
                {
                  "constant": false,
                  "id": 75,
                  "name": "_value",
                  "nodeType": "VariableDeclaration",
                  "scope": 80,
                  "src": "305:14:1",
                  "stateVariable": false,
                  "storageLocation": "default",
                  "typeDescriptions": {
                    "typeIdentifier": "t_uint256",
                    "typeString": "uint256"
                  },
                  "typeName": {
                    "id": 74,
                    "name": "uint256",
                    "nodeType": "ElementaryTypeName",
                    "src": "305:7:1",
                    "typeDescriptions": {
                      "typeIdentifier": "t_uint256",
                      "typeString": "uint256"
                    }
                  },
                  "value": null,
                  "visibility": "internal"
                }
              ],
              "src": "291:29:1"
            },
            "payable": false,
            "returnParameters": {
              "id": 79,
              "nodeType": "ParameterList",
              "parameters": [
                {
                  "constant": false,
                  "id": 78,
                  "name": "",
                  "nodeType": "VariableDeclaration",
                  "scope": 80,
                  "src": "337:4:1",
                  "stateVariable": false,
                  "storageLocation": "default",
                  "typeDescriptions": {
                    "typeIdentifier": "t_bool",
                    "typeString": "bool"
                  },
                  "typeName": {
                    "id": 77,
                    "name": "bool",
                    "nodeType": "ElementaryTypeName",
                    "src": "337:4:1",
                    "typeDescriptions": {
                      "typeIdentifier": "t_bool",
                      "typeString": "bool"
                    }
                  },
                  "value": null,
                  "visibility": "internal"
                }
              ],
              "src": "336:6:1"
            },
            "scope": 117,
            "src": "274:69:1",
            "stateMutability": "nonpayable",
            "superFunction": null,
            "visibility": "public"
          },
          {
            "body": null,
            "documentation": null,
            "id": 89,
            "implemented": false,
            "isConstructor": false,
            "isDeclaredConst": false,
            "modifiers": [],
            "name": "approve",
            "nodeType": "FunctionDefinition",
            "parameters": {
              "id": 85,
              "nodeType": "ParameterList",
              "parameters": [
                {
                  "constant": false,
                  "id": 82,
                  "name": "_spender",
                  "nodeType": "VariableDeclaration",
                  "scope": 89,
                  "src": "366:16:1",
                  "stateVariable": false,
                  "storageLocation": "default",
                  "typeDescriptions": {
                    "typeIdentifier": "t_address",
                    "typeString": "address"
                  },
                  "typeName": {
                    "id": 81,
                    "name": "address",
                    "nodeType": "ElementaryTypeName",
                    "src": "366:7:1",
                    "typeDescriptions": {
                      "typeIdentifier": "t_address",
                      "typeString": "address"
                    }
                  },
                  "value": null,
                  "visibility": "internal"
                },
                {
                  "constant": false,
                  "id": 84,
                  "name": "_value",
                  "nodeType": "VariableDeclaration",
                  "scope": 89,
                  "src": "384:14:1",
                  "stateVariable": false,
                  "storageLocation": "default",
                  "typeDescriptions": {
                    "typeIdentifier": "t_uint256",
                    "typeString": "uint256"
                  },
                  "typeName": {
                    "id": 83,
                    "name": "uint256",
                    "nodeType": "ElementaryTypeName",
                    "src": "384:7:1",
                    "typeDescriptions": {
                      "typeIdentifier": "t_uint256",
                      "typeString": "uint256"
                    }
                  },
                  "value": null,
                  "visibility": "internal"
                }
              ],
              "src": "365:34:1"
            },
            "payable": false,
            "returnParameters": {
              "id": 88,
              "nodeType": "ParameterList",
              "parameters": [
                {
                  "constant": false,
                  "id": 87,
                  "name": "",
                  "nodeType": "VariableDeclaration",
                  "scope": 89,
                  "src": "421:4:1",
                  "stateVariable": false,
                  "storageLocation": "default",
                  "typeDescriptions": {
                    "typeIdentifier": "t_bool",
                    "typeString": "bool"
                  },
                  "typeName": {
                    "id": 86,
                    "name": "bool",
                    "nodeType": "ElementaryTypeName",
                    "src": "421:4:1",
                    "typeDescriptions": {
                      "typeIdentifier": "t_bool",
                      "typeString": "bool"
                    }
                  },
                  "value": null,
                  "visibility": "internal"
                }
              ],
              "src": "420:6:1"
            },
            "scope": 117,
            "src": "349:78:1",
            "stateMutability": "nonpayable",
            "superFunction": null,
            "visibility": "public"
          },
          {
            "body": null,
            "documentation": null,
            "id": 100,
            "implemented": false,
            "isConstructor": false,
            "isDeclaredConst": false,
            "modifiers": [],
            "name": "transferFrom",
            "nodeType": "FunctionDefinition",
            "parameters": {
              "id": 96,
              "nodeType": "ParameterList",
              "parameters": [
                {
                  "constant": false,
                  "id": 91,
                  "name": "_from",
                  "nodeType": "VariableDeclaration",
                  "scope": 100,
                  "src": "455:13:1",
                  "stateVariable": false,
                  "storageLocation": "default",
                  "typeDescriptions": {
                    "typeIdentifier": "t_address",
                    "typeString": "address"
                  },
                  "typeName": {
                    "id": 90,
                    "name": "address",
                    "nodeType": "ElementaryTypeName",
                    "src": "455:7:1",
                    "typeDescriptions": {
                      "typeIdentifier": "t_address",
                      "typeString": "address"
                    }
                  },
                  "value": null,
                  "visibility": "internal"
                },
                {
                  "constant": false,
                  "id": 93,
                  "name": "_to",
                  "nodeType": "VariableDeclaration",
                  "scope": 100,
                  "src": "470:11:1",
                  "stateVariable": false,
                  "storageLocation": "default",
                  "typeDescriptions": {
                    "typeIdentifier": "t_address",
                    "typeString": "address"
                  },
                  "typeName": {
                    "id": 92,
                    "name": "address",
                    "nodeType": "ElementaryTypeName",
                    "src": "470:7:1",
                    "typeDescriptions": {
                      "typeIdentifier": "t_address",
                      "typeString": "address"
                    }
                  },
                  "value": null,
                  "visibility": "internal"
                },
                {
                  "constant": false,
                  "id": 95,
                  "name": "_value",
                  "nodeType": "VariableDeclaration",
                  "scope": 100,
                  "src": "483:14:1",
                  "stateVariable": false,
                  "storageLocation": "default",
                  "typeDescriptions": {
                    "typeIdentifier": "t_uint256",
                    "typeString": "uint256"
                  },
                  "typeName": {
                    "id": 94,
                    "name": "uint256",
                    "nodeType": "ElementaryTypeName",
                    "src": "483:7:1",
                    "typeDescriptions": {
                      "typeIdentifier": "t_uint256",
                      "typeString": "uint256"
                    }
                  },
                  "value": null,
                  "visibility": "internal"
                }
              ],
              "src": "454:44:1"
            },
            "payable": false,
            "returnParameters": {
              "id": 99,
              "nodeType": "ParameterList",
              "parameters": [
                {
                  "constant": false,
                  "id": 98,
                  "name": "",
                  "nodeType": "VariableDeclaration",
                  "scope": 100,
                  "src": "520:4:1",
                  "stateVariable": false,
                  "storageLocation": "default",
                  "typeDescriptions": {
                    "typeIdentifier": "t_bool",
                    "typeString": "bool"
                  },
                  "typeName": {
                    "id": 97,
                    "name": "bool",
                    "nodeType": "ElementaryTypeName",
                    "src": "520:4:1",
                    "typeDescriptions": {
                      "typeIdentifier": "t_bool",
                      "typeString": "bool"
                    }
                  },
                  "value": null,
                  "visibility": "internal"
                }
              ],
              "src": "519:6:1"
            },
            "scope": 117,
            "src": "433:93:1",
            "stateMutability": "nonpayable",
            "superFunction": null,
            "visibility": "public"
          },
          {
            "anonymous": false,
            "documentation": null,
            "id": 108,
            "name": "Transfer",
            "nodeType": "EventDefinition",
            "parameters": {
              "id": 107,
              "nodeType": "ParameterList",
              "parameters": [
                {
                  "constant": false,
                  "id": 102,
                  "indexed": true,
                  "name": "from",
                  "nodeType": "VariableDeclaration",
                  "scope": 108,
                  "src": "553:20:1",
                  "stateVariable": false,
                  "storageLocation": "default",
                  "typeDescriptions": {
                    "typeIdentifier": "t_address",
                    "typeString": "address"
                  },
                  "typeName": {
                    "id": 101,
                    "name": "address",
                    "nodeType": "ElementaryTypeName",
                    "src": "553:7:1",
                    "typeDescriptions": {
                      "typeIdentifier": "t_address",
                      "typeString": "address"
                    }
                  },
                  "value": null,
                  "visibility": "internal"
                },
                {
                  "constant": false,
                  "id": 104,
                  "indexed": true,
                  "name": "to",
                  "nodeType": "VariableDeclaration",
                  "scope": 108,
                  "src": "580:18:1",
                  "stateVariable": false,
                  "storageLocation": "default",
                  "typeDescriptions": {
                    "typeIdentifier": "t_address",
                    "typeString": "address"
                  },
                  "typeName": {
                    "id": 103,
                    "name": "address",
                    "nodeType": "ElementaryTypeName",
                    "src": "580:7:1",
                    "typeDescriptions": {
                      "typeIdentifier": "t_address",
                      "typeString": "address"
                    }
                  },
                  "value": null,
                  "visibility": "internal"
                },
                {
                  "constant": false,
                  "id": 106,
                  "indexed": false,
                  "name": "value",
                  "nodeType": "VariableDeclaration",
                  "scope": 108,
                  "src": "605:13:1",
                  "stateVariable": false,
                  "storageLocation": "default",
                  "typeDescriptions": {
                    "typeIdentifier": "t_uint256",
                    "typeString": "uint256"
                  },
                  "typeName": {
                    "id": 105,
                    "name": "uint256",
                    "nodeType": "ElementaryTypeName",
                    "src": "605:7:1",
                    "typeDescriptions": {
                      "typeIdentifier": "t_uint256",
                      "typeString": "uint256"
                    }
                  },
                  "value": null,
                  "visibility": "internal"
                }
              ],
              "src": "546:77:1"
            },
            "src": "532:92:1"
          },
          {
            "anonymous": false,
            "documentation": null,
            "id": 116,
            "name": "Approval",
            "nodeType": "EventDefinition",
            "parameters": {
              "id": 115,
              "nodeType": "ParameterList",
              "parameters": [
                {
                  "constant": false,
                  "id": 110,
                  "indexed": true,
                  "name": "owner",
                  "nodeType": "VariableDeclaration",
                  "scope": 116,
                  "src": "651:21:1",
                  "stateVariable": false,
                  "storageLocation": "default",
                  "typeDescriptions": {
                    "typeIdentifier": "t_address",
                    "typeString": "address"
                  },
                  "typeName": {
                    "id": 109,
                    "name": "address",
                    "nodeType": "ElementaryTypeName",
                    "src": "651:7:1",
                    "typeDescriptions": {
                      "typeIdentifier": "t_address",
                      "typeString": "address"
                    }
                  },
                  "value": null,
                  "visibility": "internal"
                },
                {
                  "constant": false,
                  "id": 112,
                  "indexed": true,
                  "name": "spender",
                  "nodeType": "VariableDeclaration",
                  "scope": 116,
                  "src": "679:23:1",
                  "stateVariable": false,
                  "storageLocation": "default",
                  "typeDescriptions": {
                    "typeIdentifier": "t_address",
                    "typeString": "address"
                  },
                  "typeName": {
                    "id": 111,
                    "name": "address",
                    "nodeType": "ElementaryTypeName",
                    "src": "679:7:1",
                    "typeDescriptions": {
                      "typeIdentifier": "t_address",
                      "typeString": "address"
                    }
                  },
                  "value": null,
                  "visibility": "internal"
                },
                {
                  "constant": false,
                  "id": 114,
                  "indexed": false,
                  "name": "value",
                  "nodeType": "VariableDeclaration",
                  "scope": 116,
                  "src": "709:13:1",
                  "stateVariable": false,
                  "storageLocation": "default",
                  "typeDescriptions": {
                    "typeIdentifier": "t_uint256",
                    "typeString": "uint256"
                  },
                  "typeName": {
                    "id": 113,
                    "name": "uint256",
                    "nodeType": "ElementaryTypeName",
                    "src": "709:7:1",
                    "typeDescriptions": {
                      "typeIdentifier": "t_uint256",
                      "typeString": "uint256"
                    }
                  },
                  "value": null,
                  "visibility": "internal"
                }
              ],
              "src": "644:83:1"
            },
            "src": "630:98:1"
          }
        ],
        "scope": 118,
        "src": "32:699:1"
      }
    ],
    "src": "0:733:1"
  },
  "legacyAST": {
    "absolutePath": "/C/Users/Beast-Lappy/Documents/Node/Asset Tokenizer/asset_tokenizer/server/contracts/ERC20.sol",
    "exportedSymbols": {
      "ERC20": [
        117
      ]
    },
    "id": 118,
    "nodeType": "SourceUnit",
    "nodes": [
      {
        "id": 50,
        "literals": [
          "solidity",
          "^",
          "0.4",
          ".24"
        ],
        "nodeType": "PragmaDirective",
        "src": "0:24:1"
      },
      {
        "baseContracts": [],
        "contractDependencies": [],
        "contractKind": "contract",
        "documentation": null,
        "fullyImplemented": false,
        "id": 117,
        "linearizedBaseContracts": [
          117
        ],
        "name": "ERC20",
        "nodeType": "ContractDefinition",
        "nodes": [
          {
            "body": null,
            "documentation": null,
            "id": 55,
            "implemented": false,
            "isConstructor": false,
            "isDeclaredConst": true,
            "modifiers": [],
            "name": "totalSupply",
            "nodeType": "FunctionDefinition",
            "parameters": {
              "id": 51,
              "nodeType": "ParameterList",
              "parameters": [],
              "src": "72:2:1"
            },
            "payable": false,
            "returnParameters": {
              "id": 54,
              "nodeType": "ParameterList",
              "parameters": [
                {
                  "constant": false,
                  "id": 53,
                  "name": "",
                  "nodeType": "VariableDeclaration",
                  "scope": 55,
                  "src": "96:7:1",
                  "stateVariable": false,
                  "storageLocation": "default",
                  "typeDescriptions": {
                    "typeIdentifier": "t_uint256",
                    "typeString": "uint256"
                  },
                  "typeName": {
                    "id": 52,
                    "name": "uint256",
                    "nodeType": "ElementaryTypeName",
                    "src": "96:7:1",
                    "typeDescriptions": {
                      "typeIdentifier": "t_uint256",
                      "typeString": "uint256"
                    }
                  },
                  "value": null,
                  "visibility": "internal"
                }
              ],
              "src": "95:9:1"
            },
            "scope": 117,
            "src": "52:53:1",
            "stateMutability": "view",
            "superFunction": null,
            "visibility": "public"
          },
          {
            "body": null,
            "documentation": null,
            "id": 62,
            "implemented": false,
            "isConstructor": false,
            "isDeclaredConst": true,
            "modifiers": [],
            "name": "balanceOf",
            "nodeType": "FunctionDefinition",
            "parameters": {
              "id": 58,
              "nodeType": "ParameterList",
              "parameters": [
                {
                  "constant": false,
                  "id": 57,
                  "name": "_who",
                  "nodeType": "VariableDeclaration",
                  "scope": 62,
                  "src": "130:12:1",
                  "stateVariable": false,
                  "storageLocation": "default",
                  "typeDescriptions": {
                    "typeIdentifier": "t_address",
                    "typeString": "address"
                  },
                  "typeName": {
                    "id": 56,
                    "name": "address",
                    "nodeType": "ElementaryTypeName",
                    "src": "130:7:1",
                    "typeDescriptions": {
                      "typeIdentifier": "t_address",
                      "typeString": "address"
                    }
                  },
                  "value": null,
                  "visibility": "internal"
                }
              ],
              "src": "129:14:1"
            },
            "payable": false,
            "returnParameters": {
              "id": 61,
              "nodeType": "ParameterList",
              "parameters": [
                {
                  "constant": false,
                  "id": 60,
                  "name": "",
                  "nodeType": "VariableDeclaration",
                  "scope": 62,
                  "src": "165:7:1",
                  "stateVariable": false,
                  "storageLocation": "default",
                  "typeDescriptions": {
                    "typeIdentifier": "t_uint256",
                    "typeString": "uint256"
                  },
                  "typeName": {
                    "id": 59,
                    "name": "uint256",
                    "nodeType": "ElementaryTypeName",
                    "src": "165:7:1",
                    "typeDescriptions": {
                      "typeIdentifier": "t_uint256",
                      "typeString": "uint256"
                    }
                  },
                  "value": null,
                  "visibility": "internal"
                }
              ],
              "src": "164:9:1"
            },
            "scope": 117,
            "src": "111:63:1",
            "stateMutability": "view",
            "superFunction": null,
            "visibility": "public"
          },
          {
            "body": null,
            "documentation": null,
            "id": 71,
            "implemented": false,
            "isConstructor": false,
            "isDeclaredConst": true,
            "modifiers": [],
            "name": "allowance",
            "nodeType": "FunctionDefinition",
            "parameters": {
              "id": 67,
              "nodeType": "ParameterList",
              "parameters": [
                {
                  "constant": false,
                  "id": 64,
                  "name": "_owner",
                  "nodeType": "VariableDeclaration",
                  "scope": 71,
                  "src": "199:14:1",
                  "stateVariable": false,
                  "storageLocation": "default",
                  "typeDescriptions": {
                    "typeIdentifier": "t_address",
                    "typeString": "address"
                  },
                  "typeName": {
                    "id": 63,
                    "name": "address",
                    "nodeType": "ElementaryTypeName",
                    "src": "199:7:1",
                    "typeDescriptions": {
                      "typeIdentifier": "t_address",
                      "typeString": "address"
                    }
                  },
                  "value": null,
                  "visibility": "internal"
                },
                {
                  "constant": false,
                  "id": 66,
                  "name": "_spender",
                  "nodeType": "VariableDeclaration",
                  "scope": 71,
                  "src": "215:16:1",
                  "stateVariable": false,
                  "storageLocation": "default",
                  "typeDescriptions": {
                    "typeIdentifier": "t_address",
                    "typeString": "address"
                  },
                  "typeName": {
                    "id": 65,
                    "name": "address",
                    "nodeType": "ElementaryTypeName",
                    "src": "215:7:1",
                    "typeDescriptions": {
                      "typeIdentifier": "t_address",
                      "typeString": "address"
                    }
                  },
                  "value": null,
                  "visibility": "internal"
                }
              ],
              "src": "198:34:1"
            },
            "payable": false,
            "returnParameters": {
              "id": 70,
              "nodeType": "ParameterList",
              "parameters": [
                {
                  "constant": false,
                  "id": 69,
                  "name": "",
                  "nodeType": "VariableDeclaration",
                  "scope": 71,
                  "src": "259:7:1",
                  "stateVariable": false,
                  "storageLocation": "default",
                  "typeDescriptions": {
                    "typeIdentifier": "t_uint256",
                    "typeString": "uint256"
                  },
                  "typeName": {
                    "id": 68,
                    "name": "uint256",
                    "nodeType": "ElementaryTypeName",
                    "src": "259:7:1",
                    "typeDescriptions": {
                      "typeIdentifier": "t_uint256",
                      "typeString": "uint256"
                    }
                  },
                  "value": null,
                  "visibility": "internal"
                }
              ],
              "src": "258:9:1"
            },
            "scope": 117,
            "src": "180:88:1",
            "stateMutability": "view",
            "superFunction": null,
            "visibility": "public"
          },
          {
            "body": null,
            "documentation": null,
            "id": 80,
            "implemented": false,
            "isConstructor": false,
            "isDeclaredConst": false,
            "modifiers": [],
            "name": "transfer",
            "nodeType": "FunctionDefinition",
            "parameters": {
              "id": 76,
              "nodeType": "ParameterList",
              "parameters": [
                {
                  "constant": false,
                  "id": 73,
                  "name": "_to",
                  "nodeType": "VariableDeclaration",
                  "scope": 80,
                  "src": "292:11:1",
                  "stateVariable": false,
                  "storageLocation": "default",
                  "typeDescriptions": {
                    "typeIdentifier": "t_address",
                    "typeString": "address"
                  },
                  "typeName": {
                    "id": 72,
                    "name": "address",
                    "nodeType": "ElementaryTypeName",
                    "src": "292:7:1",
                    "typeDescriptions": {
                      "typeIdentifier": "t_address",
                      "typeString": "address"
                    }
                  },
                  "value": null,
                  "visibility": "internal"
                },
                {
                  "constant": false,
                  "id": 75,
                  "name": "_value",
                  "nodeType": "VariableDeclaration",
                  "scope": 80,
                  "src": "305:14:1",
                  "stateVariable": false,
                  "storageLocation": "default",
                  "typeDescriptions": {
                    "typeIdentifier": "t_uint256",
                    "typeString": "uint256"
                  },
                  "typeName": {
                    "id": 74,
                    "name": "uint256",
                    "nodeType": "ElementaryTypeName",
                    "src": "305:7:1",
                    "typeDescriptions": {
                      "typeIdentifier": "t_uint256",
                      "typeString": "uint256"
                    }
                  },
                  "value": null,
                  "visibility": "internal"
                }
              ],
              "src": "291:29:1"
            },
            "payable": false,
            "returnParameters": {
              "id": 79,
              "nodeType": "ParameterList",
              "parameters": [
                {
                  "constant": false,
                  "id": 78,
                  "name": "",
                  "nodeType": "VariableDeclaration",
                  "scope": 80,
                  "src": "337:4:1",
                  "stateVariable": false,
                  "storageLocation": "default",
                  "typeDescriptions": {
                    "typeIdentifier": "t_bool",
                    "typeString": "bool"
                  },
                  "typeName": {
                    "id": 77,
                    "name": "bool",
                    "nodeType": "ElementaryTypeName",
                    "src": "337:4:1",
                    "typeDescriptions": {
                      "typeIdentifier": "t_bool",
                      "typeString": "bool"
                    }
                  },
                  "value": null,
                  "visibility": "internal"
                }
              ],
              "src": "336:6:1"
            },
            "scope": 117,
            "src": "274:69:1",
            "stateMutability": "nonpayable",
            "superFunction": null,
            "visibility": "public"
          },
          {
            "body": null,
            "documentation": null,
            "id": 89,
            "implemented": false,
            "isConstructor": false,
            "isDeclaredConst": false,
            "modifiers": [],
            "name": "approve",
            "nodeType": "FunctionDefinition",
            "parameters": {
              "id": 85,
              "nodeType": "ParameterList",
              "parameters": [
                {
                  "constant": false,
                  "id": 82,
                  "name": "_spender",
                  "nodeType": "VariableDeclaration",
                  "scope": 89,
                  "src": "366:16:1",
                  "stateVariable": false,
                  "storageLocation": "default",
                  "typeDescriptions": {
                    "typeIdentifier": "t_address",
                    "typeString": "address"
                  },
                  "typeName": {
                    "id": 81,
                    "name": "address",
                    "nodeType": "ElementaryTypeName",
                    "src": "366:7:1",
                    "typeDescriptions": {
                      "typeIdentifier": "t_address",
                      "typeString": "address"
                    }
                  },
                  "value": null,
                  "visibility": "internal"
                },
                {
                  "constant": false,
                  "id": 84,
                  "name": "_value",
                  "nodeType": "VariableDeclaration",
                  "scope": 89,
                  "src": "384:14:1",
                  "stateVariable": false,
                  "storageLocation": "default",
                  "typeDescriptions": {
                    "typeIdentifier": "t_uint256",
                    "typeString": "uint256"
                  },
                  "typeName": {
                    "id": 83,
                    "name": "uint256",
                    "nodeType": "ElementaryTypeName",
                    "src": "384:7:1",
                    "typeDescriptions": {
                      "typeIdentifier": "t_uint256",
                      "typeString": "uint256"
                    }
                  },
                  "value": null,
                  "visibility": "internal"
                }
              ],
              "src": "365:34:1"
            },
            "payable": false,
            "returnParameters": {
              "id": 88,
              "nodeType": "ParameterList",
              "parameters": [
                {
                  "constant": false,
                  "id": 87,
                  "name": "",
                  "nodeType": "VariableDeclaration",
                  "scope": 89,
                  "src": "421:4:1",
                  "stateVariable": false,
                  "storageLocation": "default",
                  "typeDescriptions": {
                    "typeIdentifier": "t_bool",
                    "typeString": "bool"
                  },
                  "typeName": {
                    "id": 86,
                    "name": "bool",
                    "nodeType": "ElementaryTypeName",
                    "src": "421:4:1",
                    "typeDescriptions": {
                      "typeIdentifier": "t_bool",
                      "typeString": "bool"
                    }
                  },
                  "value": null,
                  "visibility": "internal"
                }
              ],
              "src": "420:6:1"
            },
            "scope": 117,
            "src": "349:78:1",
            "stateMutability": "nonpayable",
            "superFunction": null,
            "visibility": "public"
          },
          {
            "body": null,
            "documentation": null,
            "id": 100,
            "implemented": false,
            "isConstructor": false,
            "isDeclaredConst": false,
            "modifiers": [],
            "name": "transferFrom",
            "nodeType": "FunctionDefinition",
            "parameters": {
              "id": 96,
              "nodeType": "ParameterList",
              "parameters": [
                {
                  "constant": false,
                  "id": 91,
                  "name": "_from",
                  "nodeType": "VariableDeclaration",
                  "scope": 100,
                  "src": "455:13:1",
                  "stateVariable": false,
                  "storageLocation": "default",
                  "typeDescriptions": {
                    "typeIdentifier": "t_address",
                    "typeString": "address"
                  },
                  "typeName": {
                    "id": 90,
                    "name": "address",
                    "nodeType": "ElementaryTypeName",
                    "src": "455:7:1",
                    "typeDescriptions": {
                      "typeIdentifier": "t_address",
                      "typeString": "address"
                    }
                  },
                  "value": null,
                  "visibility": "internal"
                },
                {
                  "constant": false,
                  "id": 93,
                  "name": "_to",
                  "nodeType": "VariableDeclaration",
                  "scope": 100,
                  "src": "470:11:1",
                  "stateVariable": false,
                  "storageLocation": "default",
                  "typeDescriptions": {
                    "typeIdentifier": "t_address",
                    "typeString": "address"
                  },
                  "typeName": {
                    "id": 92,
                    "name": "address",
                    "nodeType": "ElementaryTypeName",
                    "src": "470:7:1",
                    "typeDescriptions": {
                      "typeIdentifier": "t_address",
                      "typeString": "address"
                    }
                  },
                  "value": null,
                  "visibility": "internal"
                },
                {
                  "constant": false,
                  "id": 95,
                  "name": "_value",
                  "nodeType": "VariableDeclaration",
                  "scope": 100,
                  "src": "483:14:1",
                  "stateVariable": false,
                  "storageLocation": "default",
                  "typeDescriptions": {
                    "typeIdentifier": "t_uint256",
                    "typeString": "uint256"
                  },
                  "typeName": {
                    "id": 94,
                    "name": "uint256",
                    "nodeType": "ElementaryTypeName",
                    "src": "483:7:1",
                    "typeDescriptions": {
                      "typeIdentifier": "t_uint256",
                      "typeString": "uint256"
                    }
                  },
                  "value": null,
                  "visibility": "internal"
                }
              ],
              "src": "454:44:1"
            },
            "payable": false,
            "returnParameters": {
              "id": 99,
              "nodeType": "ParameterList",
              "parameters": [
                {
                  "constant": false,
                  "id": 98,
                  "name": "",
                  "nodeType": "VariableDeclaration",
                  "scope": 100,
                  "src": "520:4:1",
                  "stateVariable": false,
                  "storageLocation": "default",
                  "typeDescriptions": {
                    "typeIdentifier": "t_bool",
                    "typeString": "bool"
                  },
                  "typeName": {
                    "id": 97,
                    "name": "bool",
                    "nodeType": "ElementaryTypeName",
                    "src": "520:4:1",
                    "typeDescriptions": {
                      "typeIdentifier": "t_bool",
                      "typeString": "bool"
                    }
                  },
                  "value": null,
                  "visibility": "internal"
                }
              ],
              "src": "519:6:1"
            },
            "scope": 117,
            "src": "433:93:1",
            "stateMutability": "nonpayable",
            "superFunction": null,
            "visibility": "public"
          },
          {
            "anonymous": false,
            "documentation": null,
            "id": 108,
            "name": "Transfer",
            "nodeType": "EventDefinition",
            "parameters": {
              "id": 107,
              "nodeType": "ParameterList",
              "parameters": [
                {
                  "constant": false,
                  "id": 102,
                  "indexed": true,
                  "name": "from",
                  "nodeType": "VariableDeclaration",
                  "scope": 108,
                  "src": "553:20:1",
                  "stateVariable": false,
                  "storageLocation": "default",
                  "typeDescriptions": {
                    "typeIdentifier": "t_address",
                    "typeString": "address"
                  },
                  "typeName": {
                    "id": 101,
                    "name": "address",
                    "nodeType": "ElementaryTypeName",
                    "src": "553:7:1",
                    "typeDescriptions": {
                      "typeIdentifier": "t_address",
                      "typeString": "address"
                    }
                  },
                  "value": null,
                  "visibility": "internal"
                },
                {
                  "constant": false,
                  "id": 104,
                  "indexed": true,
                  "name": "to",
                  "nodeType": "VariableDeclaration",
                  "scope": 108,
                  "src": "580:18:1",
                  "stateVariable": false,
                  "storageLocation": "default",
                  "typeDescriptions": {
                    "typeIdentifier": "t_address",
                    "typeString": "address"
                  },
                  "typeName": {
                    "id": 103,
                    "name": "address",
                    "nodeType": "ElementaryTypeName",
                    "src": "580:7:1",
                    "typeDescriptions": {
                      "typeIdentifier": "t_address",
                      "typeString": "address"
                    }
                  },
                  "value": null,
                  "visibility": "internal"
                },
                {
                  "constant": false,
                  "id": 106,
                  "indexed": false,
                  "name": "value",
                  "nodeType": "VariableDeclaration",
                  "scope": 108,
                  "src": "605:13:1",
                  "stateVariable": false,
                  "storageLocation": "default",
                  "typeDescriptions": {
                    "typeIdentifier": "t_uint256",
                    "typeString": "uint256"
                  },
                  "typeName": {
                    "id": 105,
                    "name": "uint256",
                    "nodeType": "ElementaryTypeName",
                    "src": "605:7:1",
                    "typeDescriptions": {
                      "typeIdentifier": "t_uint256",
                      "typeString": "uint256"
                    }
                  },
                  "value": null,
                  "visibility": "internal"
                }
              ],
              "src": "546:77:1"
            },
            "src": "532:92:1"
          },
          {
            "anonymous": false,
            "documentation": null,
            "id": 116,
            "name": "Approval",
            "nodeType": "EventDefinition",
            "parameters": {
              "id": 115,
              "nodeType": "ParameterList",
              "parameters": [
                {
                  "constant": false,
                  "id": 110,
                  "indexed": true,
                  "name": "owner",
                  "nodeType": "VariableDeclaration",
                  "scope": 116,
                  "src": "651:21:1",
                  "stateVariable": false,
                  "storageLocation": "default",
                  "typeDescriptions": {
                    "typeIdentifier": "t_address",
                    "typeString": "address"
                  },
                  "typeName": {
                    "id": 109,
                    "name": "address",
                    "nodeType": "ElementaryTypeName",
                    "src": "651:7:1",
                    "typeDescriptions": {
                      "typeIdentifier": "t_address",
                      "typeString": "address"
                    }
                  },
                  "value": null,
                  "visibility": "internal"
                },
                {
                  "constant": false,
                  "id": 112,
                  "indexed": true,
                  "name": "spender",
                  "nodeType": "VariableDeclaration",
                  "scope": 116,
                  "src": "679:23:1",
                  "stateVariable": false,
                  "storageLocation": "default",
                  "typeDescriptions": {
                    "typeIdentifier": "t_address",
                    "typeString": "address"
                  },
                  "typeName": {
                    "id": 111,
                    "name": "address",
                    "nodeType": "ElementaryTypeName",
                    "src": "679:7:1",
                    "typeDescriptions": {
                      "typeIdentifier": "t_address",
                      "typeString": "address"
                    }
                  },
                  "value": null,
                  "visibility": "internal"
                },
                {
                  "constant": false,
                  "id": 114,
                  "indexed": false,
                  "name": "value",
                  "nodeType": "VariableDeclaration",
                  "scope": 116,
                  "src": "709:13:1",
                  "stateVariable": false,
                  "storageLocation": "default",
                  "typeDescriptions": {
                    "typeIdentifier": "t_uint256",
                    "typeString": "uint256"
                  },
                  "typeName": {
                    "id": 113,
                    "name": "uint256",
                    "nodeType": "ElementaryTypeName",
                    "src": "709:7:1",
                    "typeDescriptions": {
                      "typeIdentifier": "t_uint256",
                      "typeString": "uint256"
                    }
                  },
                  "value": null,
                  "visibility": "internal"
                }
              ],
              "src": "644:83:1"
            },
            "src": "630:98:1"
          }
        ],
        "scope": 118,
        "src": "32:699:1"
      }
    ],
    "src": "0:733:1"
  },
  "compiler": {
    "name": "solc",
    "version": "0.4.24+commit.e67f0147.Emscripten.clang"
  },
  "networks": {},
  "schemaVersion": "2.0.1",
  "updatedAt": "2018-08-12T17:46:28.612Z"
}